librarys/ALU/7SEG/quartus_work/simulation/qsim/ex1_2.msim.vcd
$comment
	File created using the following command:
		vcd file ex1_2.msim.vcd -direction
$end
$date
	Fri Oct 17 05:07:11 2025
$end
$version
	ModelSim Version 2020.1
$end
$timescale
	1ps
$end

$scope module ex1_2_JK_vlg_vec_tst $end
$var reg 1 ! CLK $end
$var reg 1 " Reset $end
$var wire 1 # L1 $end
$var wire 1 $ L2 $end
$var wire 1 % L3 $end
$var wire 1 & L4 $end
$var wire 1 ' Q0 $end
$var wire 1 ( Q1 $end
$var wire 1 ) Q2 $end

$scope module i1 $end
$var wire 1 * gnd $end
$var wire 1 + vcc $end
$var wire 1 , unknown $end
$var tri1 1 - devclrn $end
$var tri1 1 . devpor $end
$var tri1 1 / devoe $end
$var wire 1 0 Q2~output_o $end
$var wire 1 1 Q1~output_o $end
$var wire 1 2 Q0~output_o $end
$var wire 1 3 L1~output_o $end
$var wire 1 4 L2~output_o $end
$var wire 1 5 L3~output_o $end
$var wire 1 6 L4~output_o $end
$var wire 1 7 CLK~input_o $end
$var wire 1 8 inst2~0_combout $end
$var wire 1 9 Reset~input_o $end
$var wire 1 : inst2~q $end
$var wire 1 ; inst1~0_combout $end
$var wire 1 < inst1~q $end
$var wire 1 = inst~0_combout $end
$var wire 1 > inst~q $end
$var wire 1 ? inst6~combout $end
$var wire 1 @ inst4~combout $end
$upscope $end
$upscope $end
$enddefinitions $end
#0
$dumpvars
0!
1"
1#
0$
0%
0&
1'
0(
0)
0*
1+
x,
1-
1.
1/
00
01
12
13
04
05
06
07
18
19
0:
1;
0<
0=
0>
0?
0@
$end
#20000
1!
17
1:
1<
11
03
02
0'
0#
1(
08
1?
14
1$
#40000
0!
07
#60000
1!
17
0:
13
12
1'
1#
1=
0;
18
#80000
0!
07
#100000
1!
17
1:
1>
0<
01
10
15
03
02
0'
0#
1%
1)
0(
08
#120000
0!
07
#140000
1!
17
0:
13
12
1'
1#
1;
18
#160000
0!
07
#180000
1!
17
1:
1<
11
03
02
0'
0#
1(
0=
0;
08
1@
16
1&
#200000
0!
07
#220000
1!
17
0:
0>
0<
01
00
05
13
12
1'
1#
0%
0)
0(
1;
18
0@
0?
04
06
0&
0$
#240000
0!
07
#260000
1!
17
1:
1<
11
03
02
0'
0#
1(
08
1?
14
1$
#280000
0!
07
#300000
1!
17
0:
13
12
1'
1#
1=
0;
18
#320000
0!
07
#340000
1!
17
1:
1>
0<
01
10
15
03
02
0'
0#
1%
1)
0(
08
#360000
0!
07
#380000
1!
17
0:
13
12
1'
1#
1;
18
#400000
0!
07
#420000
1!
17
1:
1<
11
03
02
0'
0#
1(
0=
0;
08
1@
16
1&
#440000
0!
07
#460000
1!
17
0:
0>
0<
01
00
05
13
12
1'
1#
0%
0)
0(
1;
18
0@
0?
04
06
0&
0$
#480000
0!
07
#500000
1!
17
1:
1<
11
03
02
0'
0#
1(
08
1?
14
1$
#520000
0!
07
#540000
1!
17
0:
13
12
1'
1#
1=
0;
18
#560000
0!
07
#580000
1!
17
1:
1>
0<
01
10
15
03
02
0'
0#
1%
1)
0(
08
#600000
0!
07
#620000
1!
17
0:
13
12
1'
1#
1;
18
#640000
0!
07
#660000
1!
17
1:
1<
11
03
02
0'
0#
1(
0=
0;
08
1@
16
1&
#680000
0!
07
#700000
1!
17
0:
0>
0<
01
00
05
13
12
1'
1#
0%
0)
0(
1;
18
0@
0?
04
06
0&
0$
#720000
0!
07
#740000
1!
17
1:
1<
11
03
02
0'
0#
1(
08
1?
14
1$
#760000
0!
07
#780000
1!
17
0:
13
12
1'
1#
1=
0;
18
#800000
0!
07
#820000
1!
17
1:
1>
0<
01
10
15
03
02
0'
0#
1%
1)
0(
08
#840000
0!
07
#860000
1!
17
0:
13
12
1'
1#
1;
18
#880000
0!
07
#900000
1!
17
1:
1<
11
03
02
0'
0#
1(
0=
0;
08
1@
16
1&
#920000
0!
07
#940000
1!
17
0:
0>
0<
01
00
05
13
12
1'
1#
0%
0)
0(
1;
18
0@
0?
04
06
0&
0$
#960000
0!
07
#980000
1!
17
1:
1<
11
03
02
0'
0#
1(
08
1?
14
1$
