librarys/ALU/7SEG/quartus_work/simulation/qsim/ex1_1.msim.vcd
$comment
	File created using the following command:
		vcd file ex1_1.msim.vcd -direction
$end
$date
	Fri Oct 17 04:59:09 2025
$end
$version
	ModelSim Version 2020.1
$end
$timescale
	1ps
$end

$scope module ex1_1_vlg_vec_tst $end
$var reg 1 ! A $end
$var reg 1 " B $end
$var reg 1 # C $end
$var reg 1 $ D $end
$var wire 1 % Five $end
$var wire 1 & Four $end
$var wire 1 ' One $end
$var wire 1 ( Six $end
$var wire 1 ) Three $end
$var wire 1 * Two $end
$var wire 1 + Zero $end

$scope module i1 $end
$var wire 1 , gnd $end
$var wire 1 - vcc $end
$var wire 1 . unknown $end
$var tri1 1 / devclrn $end
$var tri1 1 0 devpor $end
$var tri1 1 1 devoe $end
$var wire 1 2 Zero~output_o $end
$var wire 1 3 One~output_o $end
$var wire 1 4 Two~output_o $end
$var wire 1 5 Three~output_o $end
$var wire 1 6 Five~output_o $end
$var wire 1 7 Four~output_o $end
$var wire 1 8 Six~output_o $end
$var wire 1 9 B~input_o $end
$var wire 1 : C~input_o $end
$var wire 1 ; A~input_o $end
$var wire 1 < D~input_o $end
$var wire 1 = inst23~0_combout $end
$var wire 1 > inst38~0_combout $end
$var wire 1 ? inst42~0_combout $end
$var wire 1 @ inst68~0_combout $end
$var wire 1 A inst5~0_combout $end
$var wire 1 B inst75~0_combout $end
$var wire 1 C inst96~0_combout $end
$upscope $end
$upscope $end
$enddefinitions $end
#0
$dumpvars
0!
0"
0#
0$
1%
1&
1'
0(
1)
1*
1+
0,
1-
x.
1/
10
11
12
13
14
15
16
17
08
09
0:
0;
0<
0=
1>
1?
1@
1A
1B
0C
$end
#30000
1$
1<
1=
0B
0A
0@
05
06
07
02
0+
0&
0%
0)
#40000
1#
0$
1:
0<
0=
1C
1B
1@
0?
04
15
17
18
12
1+
1(
1&
1)
0*
#50000
1$
1<
0B
1?
14
07
0&
1*
#60000
1"
0#
0$
19
0:
0<
1=
1A
0@
05
16
02
0+
1%
0)
#70000
1$
1<
0=
1@
0>
03
15
12
1+
1)
0'
#80000
1#
0$
1:
0<
1B
17
1&
#90000
1$
1<
0C
0B
0@
1>
13
05
07
08
0(
0&
0)
1'
#100000
1!
0"
0#
0$
1;
09
0:
0<
1C
1B
1@
15
17
18
1(
1&
1)
#110000
1$
1<
0B
07
0&
#120000
1#
0$
1:
0<
1B
0@
05
17
1&
0)
#130000
1$
1<
1=
1@
0>
03
15
02
0+
1)
0'
#140000
1"
0#
0$
19
0:
0<
0=
0C
0?
04
08
12
1+
0(
0*
#150000
1$
1<
1=
1C
0A
1?
1>
13
14
06
18
02
0+
1(
0%
1*
1'
#160000
1#
0$
1:
0<
0=
1A
0?
0>
03
04
16
12
1+
1%
0*
0'
#170000
1$
1<
0@
05
0)
#180000
0!
0"
0#
0$
0;
09
0:
0<
0C
1@
1?
1>
13
14
15
08
0(
1)
1*
1'
