librarys/counter/simulation/qsim/one_hot_state_counter.msim.vcd
$comment
	File created using the following command:
		vcd file one_hot_state_counter.msim.vcd -direction
$end
$date
	Fri Oct 31 06:03:23 2025
$end
$version
	ModelSim Version 2020.1
$end
$timescale
	1ps
$end

$scope module one_hot_state_counter_vlg_vec_tst $end
$var reg 1 ! CLK $end
$var reg 1 " CLR $end
$var wire 1 # Q0_cur $end
$var wire 1 $ Q0_next $end
$var wire 1 % Q1_cur $end
$var wire 1 & Q1_next $end
$var wire 1 ' Q2_cur $end
$var wire 1 ( Q2_next $end
$var wire 1 ) Q3_cur $end
$var wire 1 * Q3_next $end

$scope module i1 $end
$var wire 1 + gnd $end
$var wire 1 , vcc $end
$var wire 1 - unknown $end
$var tri1 1 . devclrn $end
$var tri1 1 / devpor $end
$var tri1 1 0 devoe $end
$var wire 1 1 Q3_cur~output_o $end
$var wire 1 2 Q2_cur~output_o $end
$var wire 1 3 Q1_cur~output_o $end
$var wire 1 4 Q0_cur~output_o $end
$var wire 1 5 Q3_next~output_o $end
$var wire 1 6 Q2_next~output_o $end
$var wire 1 7 Q1_next~output_o $end
$var wire 1 8 Q0_next~output_o $end
$var wire 1 9 CLK~input_o $end
$var wire 1 : CLK~inputclkctrl_outclk $end
$var wire 1 ; JKFF0~0_combout $end
$var wire 1 < CLR~input_o $end
$var wire 1 = CLR~inputclkctrl_outclk $end
$var wire 1 > JKFF0~q $end
$var wire 1 ? JKFF1~0_combout $end
$var wire 1 @ JKFF1~q $end
$var wire 1 A JKFF2~0_combout $end
$var wire 1 B JKFF2~q $end
$var wire 1 C JKFF3~0_combout $end
$var wire 1 D JKFF3~q $end
$upscope $end
$upscope $end
$enddefinitions $end
#0
$dumpvars
0!
0"
1#
0$
0%
1&
0'
0(
0)
0*
0+
1,
x-
1.
1/
10
01
02
03
14
05
06
17
08
09
0:
1;
0<
0=
0>
1?
0@
0A
0B
0C
0D
$end
#10000
1!
19
1:
#20000
1"
0!
1<
09
1=
0:
#30000
1!
19
1:
1>
1@
13
16
07
04
0#
0&
1(
1%
0?
1A
#40000
0!
09
0:
#50000
1!
19
1:
1B
0@
03
06
12
15
1*
1'
0(
0%
1C
0A
#60000
0!
09
0:
#70000
1!
19
1:
1D
0B
02
05
11
18
1$
1)
0*
0'
0C
0;
#80000
0!
09
0:
#90000
1!
19
1:
0>
0D
01
08
17
14
1#
1&
0$
0)
1?
1;
#100000
0!
09
0:
#110000
1!
19
1:
1>
1@
13
16
07
04
0#
0&
1(
1%
0?
1A
#120000
0!
09
0:
#130000
1!
19
1:
1B
0@
03
06
12
15
1*
1'
0(
0%
1C
0A
#140000
0!
09
0:
#150000
1!
19
1:
1D
0B
02
05
11
18
1$
1)
0*
0'
0C
0;
#160000
0!
09
0:
#170000
1!
19
1:
0>
0D
01
08
17
14
1#
1&
0$
0)
1?
1;
#180000
0!
09
0:
#190000
1!
19
1:
1>
1@
13
16
07
04
0#
0&
1(
1%
0?
1A
#200000
0!
09
0:
#210000
1!
19
1:
1B
0@
03
06
12
15
1*
1'
0(
0%
1C
0A
#220000
0!
09
0:
#230000
1!
19
1:
1D
0B
02
05
11
18
1$
1)
0*
0'
0C
0;
#240000
0!
09
0:
#250000
1!
19
1:
0>
0D
01
08
17
14
1#
1&
0$
0)
1?
1;
#260000
0!
09
0:
#270000
1!
19
1:
1>
1@
13
16
07
04
0#
0&
1(
1%
0?
1A
#280000
0!
09
0:
#290000
1!
19
1:
1B
0@
03
06
12
15
1*
1'
0(
0%
1C
0A
#300000
0!
09
0:
#310000
1!
19
1:
1D
0B
02
05
11
18
1$
1)
0*
0'
0C
0;
#320000
0!
09
0:
#330000
1!
19
1:
0>
0D
01
08
17
14
1#
1&
0$
0)
1?
1;
#340000
0!
09
0:
#350000
1!
19
1:
1>
1@
13
16
07
04
0#
0&
1(
1%
0?
1A
#360000
0!
09
0:
#370000
1!
19
1:
1B
0@
03
06
12
15
1*
1'
0(
0%
1C
0A
#380000
0!
09
0:
#390000
1!
19
1:
1D
0B
02
05
11
18
1$
1)
0*
0'
0C
0;
#400000
0!
09
0:
#410000
1!
19
1:
0>
0D
01
08
17
14
1#
1&
0$
0)
1?
1;
#420000
0!
09
0:
#430000
1!
19
1:
1>
1@
13
16
07
04
0#
0&
1(
1%
0?
1A
#440000
0!
09
0:
#450000
1!
19
1:
1B
0@
03
06
12
15
1*
1'
0(
0%
1C
0A
#460000
0!
09
0:
#470000
1!
19
1:
1D
0B
02
05
11
18
1$
1)
0*
0'
0C
0;
#480000
0!
09
0:
#490000
1!
19
1:
0>
0D
01
08
17
14
1#
1&
0$
0)
1?
1;
#500000
0!
09
0:
#510000
1!
19
1:
1>
1@
13
16
07
04
0#
0&
1(
1%
0?
1A
#520000
0!
09
0:
#530000
1!
19
1:
1B
0@
03
06
12
15
1*
1'
0(
0%
1C
0A
#540000
0"
0!
0<
09
0=
0:
0>
0B
02
05
17
14
1#
1&
0*
0'
1?
0C
#550000
1!
19
1:
#560000
0!
09
0:
#570000
1!
19
1:
#580000
1"
0!
1<
09
1=
0:
#590000
1!
19
1:
1>
1@
13
16
07
04
0#
0&
1(
1%
0?
1A
#600000
0!
09
0:
#610000
1!
19
1:
1B
0@
03
06
12
15
1*
1'
0(
0%
1C
0A
#620000
0!
09
0:
#630000
1!
19
1:
1D
0B
02
05
11
18
1$
1)
0*
0'
0C
0;
#640000
0!
09
0:
#650000
1!
19
1:
0>
0D
01
08
17
14
1#
1&
0$
0)
1?
1;
#660000
0!
09
0:
#670000
1!
19
1:
1>
1@
13
16
07
04
0#
0&
1(
1%
0?
1A
#680000
0!
09
0:
#690000
1!
19
1:
1B
0@
03
06
12
15
1*
1'
0(
0%
1C
0A
#700000
0!
09
0:
#710000
1!
19
1:
1D
0B
02
05
11
18
1$
1)
0*
0'
0C
0;
#720000
0!
09
0:
#730000
1!
19
1:
0>
0D
01
08
17
14
1#
1&
0$
0)
1?
1;
#740000
0!
09
0:
#750000
1!
19
1:
1>
1@
13
16
07
04
0#
0&
1(
1%
0?
1A
#760000
0!
09
0:
#770000
1!
19
1:
1B
0@
03
06
12
15
1*
1'
0(
0%
1C
0A
#780000
0!
09
0:
#790000
1!
19
1:
1D
0B
02
05
11
18
1$
1)
0*
0'
0C
0;
#800000
0!
09
0:
#810000
1!
19
1:
0>
0D
01
08
17
14
1#
1&
0$
0)
1?
1;
#820000
0!
09
0:
#830000
1!
19
1:
1>
1@
13
16
07
04
0#
0&
1(
1%
0?
1A
#840000
0!
09
0:
#850000
1!
19
1:
1B
0@
03
06
12
15
1*
1'
0(
0%
1C
0A
#860000
0!
09
0:
#870000
1!
19
1:
1D
0B
02
05
11
18
1$
1)
0*
0'
0C
0;
#880000
0!
09
0:
#890000
1!
19
1:
0>
0D
01
08
17
14
1#
1&
0$
0)
1?
1;
#900000
0!
09
0:
#910000
1!
19
1:
1>
1@
13
16
07
04
0#
0&
1(
1%
0?
1A
#920000
0!
09
0:
#930000
1!
19
1:
1B
0@
03
06
12
15
1*
1'
0(
0%
1C
0A
#940000
0!
09
0:
#950000
1!
19
1:
1D
0B
02
05
11
18
1$
1)
0*
0'
0C
0;
#960000
0!
09
0:
#970000
1!
19
1:
0>
0D
01
08
17
14
1#
1&
0$
0)
1?
1;
#980000
0!
09
0:
#990000
1!
19
1:
1>
1@
13
16
07
04
0#
0&
1(
1%
0?
1A
