H6/control/simulation/qsim/control.msim.vcd
$comment
	File created using the following command:
		vcd file control.msim.vcd -direction
$end
$date
	Tue Dec 02 14:06:58 2025
$end
$version
	ModelSim Version 2020.1
$end
$timescale
	1ps
$end

$scope module counter_vlg_vec_tst $end
$var reg 1 ! CLK $end
$var reg 1 " IsMul $end
$var reg 1 # Reset $end
$var wire 1 $ Q0 $end
$var wire 1 % Q1 $end
$var wire 1 & Q2 $end
$var wire 1 ' Q3 $end

$scope module i1 $end
$var wire 1 ( gnd $end
$var wire 1 ) vcc $end
$var wire 1 * unknown $end
$var tri1 1 + devclrn $end
$var tri1 1 , devpor $end
$var tri1 1 - devoe $end
$var wire 1 . Q3~output_o $end
$var wire 1 / Q2~output_o $end
$var wire 1 0 Q1~output_o $end
$var wire 1 1 Q0~output_o $end
$var wire 1 2 CLK~input_o $end
$var wire 1 3 CLK~inputclkctrl_outclk $end
$var wire 1 4 IsMul~input_o $end
$var wire 1 5 inst3~0_combout $end
$var wire 1 6 Reset~input_o $end
$var wire 1 7 Reset~inputclkctrl_outclk $end
$var wire 1 8 inst3~q $end
$var wire 1 9 inst2~0_combout $end
$var wire 1 : inst2~q $end
$var wire 1 ; inst1~0_combout $end
$var wire 1 < inst1~q $end
$var wire 1 = inst~0_combout $end
$var wire 1 > inst~1_combout $end
$var wire 1 ? inst~q $end
$upscope $end
$upscope $end
$enddefinitions $end
#0
$dumpvars
0!
0"
1#
0$
0%
0&
0'
0(
1)
x*
1+
1,
1-
0.
0/
00
01
02
03
04
05
16
17
08
09
0:
0;
0<
0=
0>
0?
$end
#10000
1!
12
13
#20000
0!
02
03
#30000
1!
12
13
#40000
0!
02
03
#50000
1!
12
13
#60000
0!
02
03
#70000
1!
12
13
#80000
0!
02
03
#90000
1!
12
13
#100000
0!
02
03
#110000
1!
12
13
#120000
0!
02
03
#130000
1!
12
13
#140000
0!
02
03
#150000
1!
12
13
#160000
0!
02
03
#170000
1!
12
13
#180000
0!
02
03
#190000
1!
12
13
#200000
0!
02
03
#210000
1!
12
13
#220000
0!
02
03
#230000
1!
12
13
#240000
0!
02
03
#250000
1!
12
13
#260000
0!
02
03
#270000
1!
12
13
#280000
0!
02
03
#290000
1!
12
13
#300000
0!
02
03
#310000
1!
12
13
#320000
0!
02
03
#330000
1!
12
13
#340000
0!
02
03
#350000
1!
12
13
#360000
0!
02
03
#370000
1!
12
13
#380000
0!
02
03
#390000
1!
12
13
#400000
0!
02
03
#410000
1!
12
13
#420000
0!
02
03
#430000
1!
12
13
#440000
1"
0!
14
02
03
15
#450000
1!
12
13
18
11
1$
19
05
#460000
0!
02
03
#470000
1!
12
13
1:
08
01
10
1%
0$
15
#480000
0!
02
03
#490000
1!
12
13
18
11
1$
1;
09
05
#500000
0!
02
03
#510000
1!
12
13
1<
0:
08
01
00
1/
1&
0%
0$
15
#520000
0!
02
03
#530000
1!
12
13
18
11
1$
19
05
#540000
0!
02
03
#550000
1!
12
13
1:
08
01
10
1%
0$
15
#560000
0!
02
03
#570000
1!
12
13
18
11
1=
1$
0;
09
05
1>
#580000
0!
02
03
#590000
1!
12
13
1?
0<
0:
08
01
00
0/
1.
0=
1'
0&
0%
0$
0>
15
1>
#600000
0!
02
03
#610000
1!
12
13
18
11
1$
19
05
#620000
0!
02
03
#630000
1!
12
13
1:
08
01
10
1%
0$
15
#640000
0!
02
03
#650000
1!
12
13
18
11
1$
1;
09
05
#660000
0!
02
03
#670000
1!
12
13
1<
0:
08
01
00
1/
1&
0%
0$
15
#680000
0!
02
03
#690000
1!
12
13
18
11
1$
19
05
#700000
0!
02
03
#710000
1!
12
13
1:
08
01
10
1%
0$
15
#720000
0!
02
03
#730000
1!
12
13
18
11
1=
1$
0;
09
05
0>
#740000
0!
02
03
#750000
1!
12
13
0?
0<
0:
08
01
00
0/
0.
0=
0'
0&
0%
0$
1>
15
0>
#760000
0!
02
03
#770000
1!
12
13
18
11
1$
19
05
#780000
0!
02
03
#790000
1!
12
13
1:
08
01
10
1%
0$
15
#800000
0!
02
03
#810000
1!
12
13
18
11
1$
1;
09
05
#820000
0!
02
03
#830000
1!
12
13
1<
0:
08
01
00
1/
1&
0%
0$
15
#840000
0!
02
03
#850000
1!
12
13
18
11
1$
19
05
#860000
0!
02
03
#870000
1!
12
13
1:
08
01
10
1%
0$
15
#880000
0!
02
03
#890000
1!
12
13
18
11
1=
1$
0;
09
05
1>
#900000
0!
02
03
#910000
1!
12
13
1?
0<
0:
08
01
00
0/
1.
0=
1'
0&
0%
0$
0>
15
1>
#920000
0!
02
03
#930000
1!
12
13
18
11
1$
19
05
#940000
0!
02
03
#950000
1!
12
13
1:
08
01
10
1%
0$
15
#960000
0!
02
03
#970000
1!
12
13
18
11
1$
1;
09
05
#980000
0!
02
03
#990000
1!
12
13
1<
0:
08
01
00
1/
1&
0%
0$
15
