librarys/ALU/sixteen_bit_register/simulation/qsim/exone.msim.vcd
$comment
	File created using the following command:
		vcd file exone.msim.vcd -direction
$end
$date
	Sat Oct 04 17:57:25 2025
$end
$version
	ModelSim Version 2020.1
$end
$timescale
	1ps
$end

$scope module exone_vlg_vec_tst $end
$var reg 1 ! CLK $end
$var reg 1 " CLR $end
$var reg 1 # Di $end
$var reg 1 $ Ea $end
$var reg 1 % RnotW $end
$var wire 1 & Q $end
$var wire 1 ' Qa $end

$scope module i1 $end
$var wire 1 ( gnd $end
$var wire 1 ) vcc $end
$var wire 1 * unknown $end
$var tri1 1 + devclrn $end
$var tri1 1 , devpor $end
$var tri1 1 - devoe $end
$var wire 1 . Qa~output_o $end
$var wire 1 / Q~output_o $end
$var wire 1 0 CLK~input_o $end
$var wire 1 1 Di~input_o $end
$var wire 1 2 RnotW~input_o $end
$var wire 1 3 inst5~0_combout $end
$var wire 1 4 CLR~input_o $end
$var wire 1 5 inst5~q $end
$var wire 1 6 Ea~input_o $end
$var wire 1 7 inst1~combout $end
$upscope $end
$upscope $end
$enddefinitions $end
#0
$dumpvars
0!
0"
0#
0$
0%
0&
0'
0(
1)
x*
1+
1,
1-
0.
0/
00
01
02
03
04
05
06
07
$end
#5000
1!
10
#10000
1#
0!
11
00
13
#15000
1!
10
#20000
1$
0#
0!
16
01
00
03
#25000
1!
10
#30000
1#
0!
11
00
13
#35000
1!
10
#40000
1%
0$
0#
0!
12
06
01
00
03
#45000
1!
10
#50000
1#
0!
11
00
#55000
1!
10
#60000
1$
0#
0!
16
01
00
#65000
1!
10
#70000
1#
0!
11
00
#75000
1!
10
#80000
1"
0%
0$
0#
0!
14
02
06
01
00
#85000
1!
10
#90000
1#
0!
11
00
13
#95000
1!
10
15
1/
1&
#100000
1$
0#
0!
16
01
00
17
03
1.
1'
#105000
1!
10
05
0/
0&
07
0.
0'
#110000
1#
0!
11
00
13
#115000
1!
10
15
1/
1&
17
1.
1'
#120000
1%
0$
0#
0!
12
06
01
00
07
0.
0'
#125000
1!
10
#130000
1#
0!
11
00
#135000
1!
10
#140000
1$
0#
0!
16
01
00
17
1.
1'
#145000
1!
10
#150000
1#
0!
11
00
#155000
1!
10
#160000
0"
0%
0$
0#
0!
04
02
06
01
00
03
07
0.
0'
05
0/
0&
#165000
1!
10
#170000
1#
0!
11
00
13
#175000
1!
10
#180000
1$
0#
0!
16
01
00
03
#185000
1!
10
#190000
1#
0!
11
00
13
#195000
1!
10
#200000
1%
0$
0#
0!
12
06
01
00
03
#205000
1!
10
#210000
1#
0!
11
00
#215000
1!
10
#220000
1$
0#
0!
16
01
00
#225000
1!
10
#230000
1#
0!
11
00
#235000
1!
10
#240000
1"
0%
0$
0#
0!
14
02
06
01
00
#245000
1!
10
#250000
1#
0!
11
00
13
#255000
1!
10
15
1/
1&
#260000
1$
0#
0!
16
01
00
17
03
1.
1'
#265000
1!
10
05
0/
0&
07
0.
0'
#270000
1#
0!
11
00
13
#275000
1!
10
15
1/
1&
17
1.
1'
#280000
1%
0$
0#
0!
12
06
01
00
07
0.
0'
#285000
1!
10
#290000
1#
0!
11
00
#295000
1!
10
#300000
1$
0#
0!
16
01
00
17
1.
1'
#305000
1!
10
#310000
1#
0!
11
00
#315000
1!
10
#320000
0"
0%
0$
0#
0!
04
02
06
01
00
03
07
0.
0'
05
0/
0&
#325000
1!
10
#330000
1#
0!
11
00
13
#335000
1!
10
#340000
1$
0#
0!
16
01
00
03
#345000
1!
10
#350000
1#
0!
11
00
13
#355000
1!
10
#360000
1%
0$
0#
0!
12
06
01
00
03
#365000
1!
10
#370000
1#
0!
11
00
#375000
1!
10
#380000
1$
0#
0!
16
01
00
#385000
1!
10
#390000
1#
0!
11
00
#395000
1!
10
#400000
1"
0%
0$
0#
0!
14
02
06
01
00
#405000
1!
10
#410000
1#
0!
11
00
13
#415000
1!
10
15
1/
1&
#420000
1$
0#
0!
16
01
00
17
03
1.
1'
#425000
1!
10
05
0/
0&
07
0.
0'
#430000
1#
0!
11
00
13
#435000
1!
10
15
1/
1&
17
1.
1'
#440000
1%
0$
0#
0!
12
06
01
00
07
0.
0'
#445000
1!
10
#450000
1#
0!
11
00
#455000
1!
10
#460000
1$
0#
0!
16
01
00
17
1.
1'
#465000
1!
10
#470000
1#
0!
11
00
#475000
1!
10
#480000
0"
0%
0$
0#
0!
04
02
06
01
00
03
07
0.
0'
05
0/
0&
#485000
1!
10
#490000
1#
0!
11
00
13
#495000
1!
10
#500000
1$
0#
0!
16
01
00
03
#505000
1!
10
#510000
1#
0!
11
00
13
#515000
1!
10
#520000
1%
0$
0#
0!
12
06
01
00
03
#525000
1!
10
#530000
1#
0!
11
00
#535000
1!
10
#540000
1$
0#
0!
16
01
00
#545000
1!
10
#550000
1#
0!
11
00
#555000
1!
10
#560000
1"
0%
0$
0#
0!
14
02
06
01
00
#565000
1!
10
#570000
1#
0!
11
00
13
#575000
1!
10
15
1/
1&
#580000
1$
0#
0!
16
01
00
17
03
1.
1'
#585000
1!
10
05
0/
0&
07
0.
0'
#590000
1#
0!
11
00
13
#595000
1!
10
15
1/
1&
17
1.
1'
#600000
1%
0$
0#
0!
12
06
01
00
07
0.
0'
#605000
1!
10
#610000
1#
0!
11
00
#615000
1!
10
#620000
1$
0#
0!
16
01
00
17
1.
1'
#625000
1!
10
#630000
1#
0!
11
00
#635000
1!
10
#640000
0"
0%
0$
0#
0!
04
02
06
01
00
03
07
0.
0'
05
0/
0&
#645000
1!
10
#650000
1#
0!
11
00
13
#655000
1!
10
#660000
1$
0#
0!
16
01
00
03
#665000
1!
10
#670000
1#
0!
11
00
13
#675000
1!
10
#680000
1%
0$
0#
0!
12
06
01
00
03
#685000
1!
10
#690000
1#
0!
11
00
#695000
1!
10
#700000
1$
0#
0!
16
01
00
#705000
1!
10
#710000
1#
0!
11
00
#715000
1!
10
#720000
1"
0%
0$
0#
0!
14
02
06
01
00
#725000
1!
10
#730000
1#
0!
11
00
13
#735000
1!
10
15
1/
1&
#740000
1$
0#
0!
16
01
00
17
03
1.
1'
#745000
1!
10
05
0/
0&
07
0.
0'
#750000
1#
0!
11
00
13
#755000
1!
10
15
1/
1&
17
1.
1'
#760000
1%
0$
0#
0!
12
06
01
00
07
0.
0'
#765000
1!
10
#770000
1#
0!
11
00
#775000
1!
10
#780000
1$
0#
0!
16
01
00
17
1.
1'
#785000
1!
10
#790000
1#
0!
11
00
#795000
1!
10
#800000
0"
0%
0$
0#
0!
04
02
06
01
00
03
07
0.
0'
05
0/
0&
#805000
1!
10
#810000
1#
0!
11
00
13
#815000
1!
10
#820000
1$
0#
0!
16
01
00
03
#825000
1!
10
#830000
1#
0!
11
00
13
#835000
1!
10
#840000
1%
0$
0#
0!
12
06
01
00
03
#845000
1!
10
#850000
1#
0!
11
00
#855000
1!
10
#860000
1$
0#
0!
16
01
00
#865000
1!
10
#870000
1#
0!
11
00
#875000
1!
10
#880000
1"
0%
0$
0#
0!
14
02
06
01
00
#885000
1!
10
#890000
1#
0!
11
00
13
#895000
1!
10
15
1/
1&
#900000
1$
0#
0!
16
01
00
17
03
1.
1'
#905000
1!
10
05
0/
0&
07
0.
0'
#910000
1#
0!
11
00
13
#915000
1!
10
15
1/
1&
17
1.
1'
#920000
1%
0$
0#
0!
12
06
01
00
07
0.
0'
#925000
1!
10
#930000
1#
0!
11
00
#935000
1!
10
#940000
1$
0#
0!
16
01
00
17
1.
1'
#945000
1!
10
#950000
1#
0!
11
00
#955000
1!
10
#960000
0"
0%
0$
0#
0!
04
02
06
01
00
03
07
0.
0'
05
0/
0&
#965000
1!
10
#970000
1#
0!
11
00
13
#975000
1!
10
#980000
1$
0#
0!
16
01
00
03
#985000
1!
10
#990000
1#
0!
11
00
13
#995000
1!
10
