librarys/ALU/seven_segment/dice_jk/simulation/qsim/dice_jk.msim.vcd
$comment
	File created using the following command:
		vcd file dice_jk.msim.vcd -direction
$end
$date
	Fri Oct 17 09:47:46 2025
$end
$version
	ModelSim Version 2020.1
$end
$timescale
	1ps
$end

$scope module dice_jk_interface_vlg_vec_tst $end
$var reg 1 ! CLK_50_in $end
$var reg 1 " RESET_in $end
$var wire 1 # CLK_out $end
$var wire 1 $ L1_out $end
$var wire 1 % L2_out $end
$var wire 1 & L3_out $end
$var wire 1 ' L4_out $end
$var wire 1 ( Q0_out $end
$var wire 1 ) Q1_out $end
$var wire 1 * Q2_out $end
$var wire 1 + RESET_out $end

$scope module i1 $end
$var wire 1 , gnd $end
$var wire 1 - vcc $end
$var wire 1 . unknown $end
$var tri1 1 / devclrn $end
$var tri1 1 0 devpor $end
$var tri1 1 1 devoe $end
$var wire 1 2 L1_out~output_o $end
$var wire 1 3 L2_out~output_o $end
$var wire 1 4 L3_out~output_o $end
$var wire 1 5 L4_out~output_o $end
$var wire 1 6 CLK_out~output_o $end
$var wire 1 7 RESET_out~output_o $end
$var wire 1 8 Q2_out~output_o $end
$var wire 1 9 Q1_out~output_o $end
$var wire 1 : Q0_out~output_o $end
$var wire 1 ; CLK_50_in~input_o $end
$var wire 1 < CLK_50_in~inputclkctrl_outclk $end
$var wire 1 = inst|jkff0~0_combout $end
$var wire 1 > RESET_in~input_o $end
$var wire 1 ? RESET_in~inputclkctrl_outclk $end
$var wire 1 @ inst|jkff0~q $end
$var wire 1 A inst|jkff1~0_combout $end
$var wire 1 B inst|jkff1~q $end
$var wire 1 C inst|jkff2~0_combout $end
$var wire 1 D inst|jkff2~q $end
$var wire 1 E inst|inst7~combout $end
$var wire 1 F inst|inst6~combout $end
$upscope $end
$upscope $end
$enddefinitions $end
#0
$dumpvars
0!
1"
1#
0$
1%
1&
1'
0(
1)
1*
0+
0,
1-
x.
1/
10
11
02
13
14
15
16
07
18
19
0:
0;
0<
1=
1>
1?
0@
1A
0B
0C
0D
0E
0F
$end
#20000
0"
0>
0?
17
1+
#50000
1!
1;
1<
06
0#
#100000
0!
0;
0<
16
1#
1B
1@
12
1:
09
1E
0)
1(
1$
0=
03
0%
#150000
1!
1;
1<
06
0#
#200000
0!
0;
0<
16
1#
0@
02
0:
0(
0$
1C
0A
1=
#250000
1!
1;
1<
06
0#
#300000
0!
0;
0<
16
1#
0B
1D
1@
12
1:
08
04
19
1)
0&
0*
1(
1$
0=
#350000
1!
1;
1<
06
0#
#400000
0!
0;
0<
16
1#
0@
02
0:
0(
0$
1A
1=
#450000
1!
1;
1<
06
0#
#500000
0!
0;
0<
16
1#
1B
1@
12
1:
09
1F
0)
1(
1$
0C
0A
0=
05
0'
#550000
1!
1;
1<
06
0#
#600000
0!
0;
0<
16
1#
0B
0D
0@
02
0:
18
14
19
0F
0E
1)
1&
1*
0(
0$
1A
1=
13
15
1'
1%
#650000
1!
1;
1<
06
0#
#700000
0!
0;
0<
16
1#
1B
1@
12
1:
09
1E
0)
1(
1$
0=
03
0%
#750000
1!
1;
1<
06
0#
#800000
0!
0;
0<
16
1#
0@
02
0:
0(
0$
1C
0A
1=
#850000
1!
1;
1<
06
0#
#900000
0!
0;
0<
16
1#
0B
1D
1@
12
1:
08
04
19
1)
0&
0*
1(
1$
0=
