librarys/ALU/seven_segment/simulation/qsim/sevenSegment.msim.vcd
$comment
	File created using the following command:
		vcd file sevenSegment.msim.vcd -direction
$end
$date
	Fri Oct 17 08:11:15 2025
$end
$version
	ModelSim Version 2020.1
$end
$timescale
	1ps
$end

$scope module sevenSegments_vlg_vec_tst $end
$var reg 1 ! x0 $end
$var reg 1 " x1 $end
$var reg 1 # x2 $end
$var reg 1 $ x3 $end
$var wire 1 % a_out $end
$var wire 1 & b_out $end
$var wire 1 ' c_out $end
$var wire 1 ( d_out $end
$var wire 1 ) e_out $end
$var wire 1 * f_out $end
$var wire 1 + g_out $end

$scope module i1 $end
$var wire 1 , gnd $end
$var wire 1 - vcc $end
$var wire 1 . unknown $end
$var tri1 1 / devclrn $end
$var tri1 1 0 devpor $end
$var tri1 1 1 devoe $end
$var wire 1 2 a_out~output_o $end
$var wire 1 3 b_out~output_o $end
$var wire 1 4 c_out~output_o $end
$var wire 1 5 d_out~output_o $end
$var wire 1 6 e_out~output_o $end
$var wire 1 7 f_out~output_o $end
$var wire 1 8 g_out~output_o $end
$var wire 1 9 x2~input_o $end
$var wire 1 : x1~input_o $end
$var wire 1 ; x0~input_o $end
$var wire 1 < x3~input_o $end
$var wire 1 = inst05~0_combout $end
$var wire 1 > inst13~0_combout $end
$var wire 1 ? inst26~0_combout $end
$var wire 1 @ inst39~0_combout $end
$var wire 1 A inst44~0_combout $end
$var wire 1 B inst49~0_combout $end
$var wire 1 C inst61~0_combout $end
$upscope $end
$upscope $end
$enddefinitions $end
#0
$dumpvars
0!
0"
0#
0$
1%
1&
1'
1(
1)
1*
0+
0,
1-
x.
1/
10
11
12
13
14
15
16
17
08
09
0:
0;
0<
1=
1>
1?
1@
1A
1B
0C
$end
#40000
1!
1;
0B
0A
0@
0=
02
05
06
07
0*
0)
0(
0%
#80000
1"
0!
1:
0;
1C
1A
1@
0?
1=
12
04
15
16
18
1+
1)
1(
0'
1%
#120000
1!
1;
0A
1?
14
06
0)
1'
#160000
1#
0"
0!
19
0:
0;
1B
0@
0=
02
05
17
1*
0(
0%
#200000
1!
1;
1@
0>
1=
12
03
15
1(
0&
1%
#240000
1"
0!
1:
0;
1A
16
1)
#280000
1!
1;
0C
0A
0@
1>
13
05
06
08
0+
0)
0(
1&
#320000
1$
0#
0"
0!
1<
09
0:
0;
1C
1A
1@
15
16
18
1+
1)
1(
#360000
1!
1;
0A
06
0)
#400000
1"
0!
1:
0;
1A
0@
05
16
1)
0(
#440000
1!
1;
1@
0>
0=
02
03
15
1(
0&
0%
#480000
1#
0"
0!
19
0:
0;
0C
0?
1=
12
04
08
0+
0'
1%
#520000
1!
1;
1C
0B
1?
1>
0=
02
13
14
07
18
1+
0*
1'
1&
0%
#560000
1"
0!
1:
0;
1B
0?
0>
1=
12
03
04
17
1*
0'
0&
1%
#600000
1!
1;
0@
05
0(
#640000
0$
0#
0"
0!
0<
09
0:
0;
0C
1@
1?
1>
13
14
15
08
0+
1(
1'
1&
#680000
1!
1;
0B
0A
0@
0=
02
05
06
07
0*
0)
0(
0%
#720000
1"
0!
1:
0;
1C
1A
1@
0?
1=
12
04
15
16
18
1+
1)
1(
0'
1%
#760000
1!
1;
0A
1?
14
06
0)
1'
#800000
1#
0"
0!
19
0:
0;
1B
0@
0=
02
05
17
1*
0(
0%
#840000
1!
1;
1@
0>
1=
12
03
15
1(
0&
1%
#880000
1"
0!
1:
0;
1A
16
1)
#920000
1!
1;
0C
0A
0@
1>
13
05
06
08
0+
0)
0(
1&
#960000
1$
0#
0"
0!
1<
09
0:
0;
1C
1A
1@
15
16
18
1+
1)
1(
